<?xml version="1.0" encoding="UTF-8"?>
<svg id="Layer_1" data-name="Layer 1" xmlns="http://www.w3.org/2000/svg" viewBox="0 0 3135.62 749.85">
  <defs>
    <style>
      .cls-1 {
        fill: #f04c23;
      }

      .cls-2 {
        fill: #f04d25;
      }

      .cls-3 {
        fill: #fff;
      }
    </style>
  </defs>
  <g>
    <g>
      <path class="cls-3" d="m67.01,214.72c-30.4,20.76-50.44,53.1-59.58,96.13-5,23.62-7.43,64.24-7.43,124.19v218.7h107.68v-191.77h275.38v-90.43H107.78c.97-31.39,9.52-55.91,25.5-72.95,18.63-20.15,48.61-30.37,89.11-30.37h160.68v-90.43h-152.05c-72.57,0-127.74,12.42-164,36.94Z"/>
      <path class="cls-3" d="m600.33,534.73c-9.44-13.96-14.22-37.42-14.22-69.72V177.78h-105.7v282.5c0,65.9,13.23,114.42,39.32,144.2,28.5,32.69,76.69,49.27,143.25,49.27h143.43v-86.45h-120.2c-42.34,0-71.24-10.96-85.88-32.56Z"/>
      <path class="cls-2" d="m1410.3,0c-.09,70.9-11.35,188.06-79.81,306.86-61.65,106.99-140.69,164.99-218.24,221.91-77.12,56.6-155.49,114.12-275.05,140.95-134.19,30.11-249.56,5.7-316.7-15.18,57.58,33.93,177.98,93.98,339.25,95.23,69.64.54,220.31,1.71,355.76-102.89,125.33-96.78,164.61-227.74,184.69-294.66,46.64-155.49,24.9-288.56,10.11-352.21Zm-297.83,538.44c3.19,4.35,6.38,8.69,9.57,13.04-2.42,1.68-4.85,3.36-7.27,5.04-2.88-4.42-5.75-8.83-8.63-13.25,2.11-1.61,4.22-3.22,6.33-4.83Zm-16.97,13.12c2.83,4.11,5.65,8.22,8.48,12.33-2.21,1.75-4.42,3.49-6.65,5.2-2.75-4.08-5.5-8.16-8.25-12.24,2.15-1.75,4.29-3.51,6.42-5.29Zm29.86,10.75c16.67,23.23,33.34,46.45,50,69.68-6.16,4.28-12.87,8.64-20.15,12.97-7.31,4.35-14.37,8.18-21.09,11.56-14.95-23.11-29.9-46.22-44.84-69.33,4.2-3.11,8.52-6.23,12.95-9.34,7.83-5.51,15.55-10.68,23.13-15.53Zm-46.4,2.57c2.63,4.03,5.26,8.07,7.89,12.1-2.26,1.66-4.53,3.31-6.82,4.94-2.56-4-5.11-8-7.67-12,2.21-1.66,4.41-3.34,6.59-5.03Zm-16.97,12.66c2.44,3.95,4.88,7.9,7.33,11.85-2.31,1.57-4.64,3.13-6.97,4.67-2.37-3.91-4.74-7.83-7.11-11.74,2.26-1.57,4.51-3.17,6.75-4.77Zm-17.38,12c2.26,3.86,4.52,7.72,6.78,11.57-2.36,1.48-4.74,2.95-7.12,4.4-2.19-3.82-4.38-7.64-6.57-11.46,2.31-1.49,4.62-2.99,6.91-4.51Zm26.97,9.59c13.88,22.63,27.77,45.26,41.65,67.89-14.35,6.9-28.88,13.25-43.56,19.06-11.82-21.54-23.63-43.07-35.45-64.61,12.69-6.97,25.15-14.42,37.35-22.34Zm-44.75,1.73c2.08,3.76,4.17,7.52,6.25,11.28-2.41,1.39-4.83,2.77-7.26,4.13-2.02-3.72-4.03-7.44-6.05-11.17,2.36-1.4,4.71-2.82,7.06-4.25Zm21.21,93.33c-14.82,5.27-29.79,10-44.86,14.17-9.01-19.65-18.02-39.31-27.03-58.96,13.3-5.54,26.41-11.56,39.31-18.07,10.86,20.95,21.72,41.9,32.58,62.85Zm-39.35-82.68c1.91,3.66,3.83,7.32,5.74,10.98-2.45,1.3-4.92,2.59-7.39,3.86-1.85-3.62-3.7-7.23-5.54-10.85,2.41-1.31,4.81-2.64,7.2-3.98Zm-18.49,9.98c1.75,3.55,3.5,7.1,5.25,10.65-2.5,1.21-5,2.41-7.51,3.59-1.69-3.51-3.37-7.01-5.06-10.52,2.45-1.22,4.89-2.46,7.33-3.72Zm-18.82,9.29c1.59,3.44,3.18,6.87,4.78,10.31-2.54,1.12-5.08,2.23-7.63,3.31-1.53-3.39-3.07-6.78-4.6-10.17,2.49-1.13,4.98-2.28,7.45-3.45Zm-19.13,8.6c1.44,3.32,2.88,6.64,4.33,9.95-2.57,1.03-5.15,2.04-7.74,3.03-1.38-3.27-2.77-6.54-4.15-9.81,2.53-1.04,5.05-2.1,7.57-3.18Zm-19.42,7.91c1.3,3.19,2.6,6.39,3.89,9.58-2.61.94-5.22,1.85-7.84,2.75-1.24-3.14-2.49-6.29-3.73-9.43,2.56-.95,5.12-1.92,7.67-2.9Zm-19.69,7.21c1.16,3.06,2.32,6.13,3.48,9.19-2.64.84-5.28,1.67-7.93,2.47-1.11-3.01-2.22-6.02-3.33-9.04,2.6-.86,5.19-1.74,7.78-2.63Zm-19.94,6.51c1.03,2.93,2.06,5.86,3.09,8.79-2.67.75-5.34,1.48-8.02,2.19-.98-2.88-1.96-5.75-2.95-8.63,2.63-.77,5.25-1.55,7.87-2.35Zm-20.18,5.8c.91,2.79,1.82,5.58,2.72,8.37-2.69.65-5.39,1.29-8.09,1.91-.86-2.74-1.72-5.47-2.59-8.21,2.66-.67,5.31-1.37,7.95-2.07Zm-40.97,9.45c.68,2.5,1.37,5,2.05,7.5-2.74.46-5.48.91-8.22,1.34-.64-2.44-1.29-4.89-1.93-7.33,2.7-.49,5.4-.99,8.1-1.51Zm-20.75,3.64c.58,2.35,1.17,4.7,1.75,7.05-2.76.37-5.51.72-8.28,1.05-.55-2.29-1.09-4.58-1.64-6.87,2.72-.39,5.45-.8,8.16-1.23Zm21.05,9.4c3.84,14.26,7.69,28.51,11.53,42.77-15.45.38-30.91.21-46.34-.51-2.73-12.48-5.46-24.96-8.19-37.44,14.4-1.1,28.74-2.71,42.99-4.83Zm-63-4.3c.4,2.04.81,4.08,1.21,6.11-2.78.17-5.57.33-8.36.46-.37-1.97-.74-3.95-1.12-5.92,2.76-.2,5.51-.42,8.26-.65Zm5.59,45.12c-15.39-1.25-30.75-3.06-46.03-5.41-1.4-9.69-2.8-19.37-4.21-29.06,14.52.42,29.03.33,43.49-.27,2.25,11.58,4.5,23.16,6.75,34.74Zm-26.74-43.68c.33,1.88.65,3.75.98,5.63-2.79.08-5.59.13-8.39.17-.3-1.81-.59-3.62-.89-5.44,2.77-.1,5.54-.22,8.3-.36Zm-42.56.65c.19,1.54.38,3.09.58,4.63-2.81-.12-5.62-.26-8.42-.42-.17-1.48-.34-2.96-.51-4.43,2.79.09,5.57.17,8.36.22Zm.93,33.77c-15.2-2.89-30.32-6.33-45.31-10.33-.49-6.74-.97-13.49-1.46-20.23,14.52,1.97,29.07,3.42,43.61,4.36,1.06,8.74,2.11,17.47,3.17,26.21Zm-30.68-35.09c2.79.19,5.58.37,8.37.52.14,1.37.28,2.75.41,4.12-2.81-.22-5.62-.46-8.43-.72-.12-1.31-.24-2.61-.36-3.92Zm-21.41-1.86c2.79.29,5.59.56,8.38.82.09,1.2.18,2.4.27,3.6-2.81-.32-5.62-.66-8.43-1.02-.08-1.13-.15-2.27-.23-3.4Zm-42.83-6.01c2.79.49,5.58.97,8.37,1.42.02.85.05,1.7.07,2.55-2.8-.52-5.6-1.07-8.4-1.63-.01-.78-.03-1.56-.04-2.34Zm26.86,9.13c.28,5.75.56,11.5.84,17.26-14.87-4.53-29.62-9.61-44.2-15.25,0-3.69,0-7.37,0-11.06,14.4,3.55,28.86,6.56,43.36,9.05Zm-48.24-13.29c2.78.59,5.57,1.17,8.36,1.72,0,.67,0,1.34,0,2.01-2.79-.62-5.59-1.27-8.38-1.93,0-.6,0-1.2,0-1.8Zm-42.57-10.68c2.77.8,5.53,1.58,8.3,2.34-.01.31-.03.62-.04.92-2.77-.83-5.54-1.68-8.3-2.55.01-.24.03-.47.04-.71Zm26.38,9.33c-.06,2.66-.12,5.33-.19,7.99-14.41-6.17-28.65-12.9-42.68-20.17.04-.55.08-1.09.12-1.64,14.16,5.15,28.41,9.75,42.75,13.82Zm-47.53-15.85c2.75.9,5.51,1.78,8.27,2.65,0,.12-.02.25-.03.37-2.75-.93-5.51-1.89-8.25-2.86,0-.05,0-.11.01-.16Zm8.03,6.05c-2.72-1.52-5.44-3.05-8.15-4.61,0-.05,0-.11.01-.16,2.71,1.49,5.43,2.95,8.16,4.39,0,.12-.02.25-.03.37Zm21.06,11.21c-2.77-1.41-5.53-2.84-8.28-4.29.01-.24.03-.47.04-.71,2.75,1.38,5.51,2.74,8.28,4.07-.01.31-.03.62-.04.92Zm21.38,10.39c-2.81-1.3-5.61-2.62-8.4-3.97.01-.42.02-.84.04-1.26,2.79,1.27,5.59,2.52,8.4,3.76,0,.49-.02.98-.03,1.47Zm.24-11.91c-2.78-.73-5.56-1.47-8.34-2.24.01-.42.02-.84.04-1.26,2.78.7,5.56,1.37,8.34,2.03,0,.49-.02.98-.03,1.47Zm21.45,21.48c-2.85-1.19-5.69-2.41-8.52-3.65,0-.6,0-1.2,0-1.8,2.83,1.17,5.66,2.31,8.5,3.43,0,.67,0,1.34,0,2.01Zm21.96,8.75c-2.88-1.09-5.76-2.2-8.63-3.32l-.04-2.34c2.86,1.06,5.73,2.1,8.6,3.11.02.85.05,1.7.07,2.55Zm22.22,7.92c-2.91-.98-5.82-1.98-8.72-3-.04-.96-.08-1.91-.12-2.87,2.89.95,5.79,1.88,8.69,2.79.05,1.03.11,2.05.16,3.08Zm-1.3-24.94c-2.81-.42-5.61-.86-8.42-1.32-.04-.96-.08-1.91-.12-2.87,2.79.39,5.59.76,8.38,1.12.05,1.03.11,2.05.16,3.08Zm23.76,32.04c-2.94-.87-5.88-1.77-8.81-2.68-.08-1.13-.15-2.27-.23-3.4,2.92.85,5.84,1.67,8.77,2.47.09,1.2.18,2.4.27,3.6Zm22.67,6.27c-2.97-.76-5.93-1.55-8.89-2.36-.12-1.31-.24-2.61-.36-3.92,2.94.74,5.89,1.46,8.84,2.15.14,1.37.28,2.75.41,4.12Zm13.89,3.41c-.17-1.48-.34-2.96-.51-4.43,2.96.63,5.93,1.24,8.9,1.83.19,1.54.38,3.09.58,4.63-2.99-.66-5.98-1.33-8.96-2.03Zm16.7-40c2.78,0,5.56-.03,8.33-.07.25,1.71.51,3.42.76,5.13-2.8-.02-5.61-.06-8.41-.13-.23-1.65-.46-3.29-.69-4.94Zm6.26,44.95c-.23-1.65-.46-3.29-.69-4.94,2.98.53,5.96,1.03,8.95,1.51.25,1.71.51,3.42.76,5.13-3.01-.55-6.02-1.12-9.03-1.71Zm23.11,4.12c-.3-1.81-.59-3.62-.89-5.44,3,.42,5.99.82,8.99,1.19.32,1.88.65,3.75.97,5.63-3.03-.44-6.06-.9-9.08-1.39Zm23.24,3.29c-.37-1.97-.74-3.95-1.12-5.92,3.01.31,6.02.6,9.03.87.4,2.04.81,4.08,1.21,6.11-3.04-.33-6.09-.69-9.12-1.06Zm10.94-55.81c2.74-.29,5.48-.61,8.22-.94.49,2.2.98,4.39,1.47,6.59-2.77.27-5.54.52-8.32.76-.45-2.13-.91-4.27-1.36-6.4Zm12.41,58.27c-.45-2.13-.91-4.27-1.36-6.4,3.02.21,6.04.39,9.06.55.49,2.2.98,4.39,1.47,6.59-3.06-.22-6.11-.47-9.16-.74Zm23.43,1.63c-.55-2.29-1.09-4.58-1.64-6.87,3.02.1,6.05.18,9.07.23.58,2.35,1.17,4.7,1.75,7.05-3.06-.12-6.13-.25-9.19-.41Zm23.49.8c-.64-2.44-1.29-4.89-1.93-7.33,3.03,0,6.06-.04,9.08-.09.68,2.5,1.37,5,2.05,7.5-3.07,0-6.14-.04-9.2-.09Zm3.08-70.77c2.68-.58,5.36-1.18,8.03-1.79.79,2.65,1.58,5.3,2.38,7.95-2.72.56-5.44,1.1-8.16,1.62-.75-2.59-1.5-5.18-2.25-7.77Zm50.71,2.85c5.82,16.73,11.64,33.46,17.46,50.19-15.38,2.01-30.8,3.48-46.25,4.39-4.45-15.09-8.9-30.19-13.35-45.28,14.16-2.6,28.21-5.71,42.14-9.31Zm-30.27,67.9c-.75-2.59-1.5-5.18-2.25-7.77,3.03-.12,6.06-.25,9.08-.41.79,2.65,1.58,5.3,2.38,7.95-3.07.1-6.14.18-9.21.24Zm23.55-.86c-.86-2.74-1.72-5.47-2.59-8.21,3.03-.22,6.05-.46,9.08-.73.91,2.79,1.82,5.58,2.72,8.37-3.07.21-6.14.4-9.21.56Zm23.54-1.69c-.98-2.88-1.96-5.75-2.95-8.63,3.02-.33,6.04-.68,9.06-1.05,1.03,2.93,2.06,5.86,3.09,8.79-3.07.32-6.14.61-9.2.89Zm3.49-70.99c13.79-4.08,27.44-8.66,40.91-13.72,8.17,18.97,16.33,37.95,24.5,56.92-15.17,3.64-30.43,6.74-45.75,9.29-6.55-17.49-13.1-34.99-19.65-52.48Zm20.02,68.46c-1.11-3.01-2.22-6.02-3.33-9.04,3.01-.44,6.02-.89,9.03-1.37,1.16,3.06,2.32,6.13,3.48,9.19-3.06.43-6.12.83-9.19,1.21Zm23.46-3.35c-1.24-3.14-2.49-6.29-3.73-9.43,3-.54,6-1.11,9-1.69,1.3,3.19,2.6,6.39,3.89,9.58-3.05.53-6.1,1.05-9.16,1.54Zm23.38-4.19c-1.38-3.27-2.77-6.54-4.15-9.81,2.99-.65,5.97-1.32,8.95-2.01,1.44,3.32,2.88,6.64,4.33,9.95-3.04.64-6.08,1.26-9.12,1.87Zm23.29-5.02c-1.53-3.39-3.07-6.78-4.6-10.17,2.97-.76,5.94-1.53,8.9-2.33,1.59,3.44,3.18,6.87,4.78,10.31-3.02.75-6.05,1.48-9.08,2.19Zm23.17-5.86c-1.69-3.51-3.37-7.01-5.06-10.52,2.95-.86,5.9-1.75,8.84-2.65,1.75,3.55,3.5,7.1,5.25,10.65-3.01.86-6.01,1.7-9.03,2.52Zm23.02-6.69c-1.85-3.62-3.7-7.23-5.54-10.85,2.93-.97,5.85-1.96,8.77-2.97,1.91,3.66,3.83,7.32,5.74,10.98-2.98.97-5.97,1.92-8.96,2.85Zm22.86-7.53c-2.02-3.72-4.03-7.44-6.05-11.17,2.9-1.08,5.8-2.17,8.69-3.29,2.08,3.76,4.17,7.52,6.25,11.28-2.96,1.08-5.92,2.14-8.89,3.17Zm22.67-8.36c-2.19-3.82-4.38-7.64-6.57-11.46,2.87-1.18,5.74-2.39,8.6-3.61,2.26,3.86,4.52,7.72,6.78,11.57-2.93,1.19-5.87,2.36-8.81,3.5Zm22.46-9.2c-2.37-3.91-4.74-7.83-7.11-11.74,2.84-1.29,5.68-2.6,8.51-3.93,2.44,3.95,4.88,7.9,7.33,11.85-2.9,1.3-5.81,2.57-8.72,3.83Zm22.22-10.04c-2.56-4-5.11-8-7.67-12,2.81-1.4,5.61-2.81,8.4-4.25,2.63,4.03,5.26,8.07,7.89,12.1-2.87,1.41-5.74,2.79-8.63,4.16Zm21.97-10.88c-2.75-4.08-5.5-8.16-8.25-12.24,2.77-1.5,5.53-3.03,8.29-4.57,2.83,4.11,5.65,8.22,8.48,12.33-2.83,1.52-5.67,3.01-8.52,4.49Zm21.13-12.17c-2.76-4-5.52-8-8.28-12.01,2.56-1.88,5.13-3.77,7.69-5.65,2.77,4.2,5.54,8.41,8.31,12.61-2.57,1.68-5.14,3.36-7.71,5.04Zm239.24-569.72c-.64-.2-1.28-.4-1.92-.61-.23-3.05-.48-6.09-.75-9.14.57.18,1.15.35,1.72.53.34,3.07.65,6.15.94,9.22Zm-2.68-23.55c-.47-.14-.94-.27-1.41-.41-.34-3.05-.7-6.09-1.08-9.13.4.11.81.23,1.21.34.45,3.07.88,6.14,1.29,9.2Zm-5.18-32.69c.57,3.06,1.11,6.12,1.63,9.18-.3-.08-.6-.16-.89-.24-.45-3.04-.93-6.08-1.42-9.12.23.06.46.12.69.18Zm-4.78-23.41c.68,3.05,1.34,6.1,1.98,9.15-.12-.03-.24-.06-.37-.09-.57-3.03-1.15-6.07-1.77-9.1l.16.04Zm-1.41-.32c.05.01.1.02.16.04.11,2.91.2,5.82.27,8.73-.12-.03-.24-.06-.37-.09,0-2.89-.02-5.78-.06-8.68Zm-.08,22.14c.23.06.46.12.69.18,0,2.9,0,5.79-.04,8.68-.3-.08-.6-.16-.89-.24.1-2.87.18-5.75.24-8.62Zm.59-16.96c.53.13,1.07.25,1.6.38,2.77,15.56,4.95,31.15,6.55,46.75-2.56-.73-5.12-1.47-7.68-2.2.38-14.9.23-29.88-.46-44.92Zm-1.45,38.95c.4.11.81.23,1.21.34-.09,2.88-.21,5.76-.34,8.63-.47-.14-.94-.27-1.41-.41.2-2.85.38-5.7.55-8.56Zm-1.63,21.83c.57.18,1.15.35,1.72.53-.2,2.86-.41,5.72-.65,8.57-.64-.2-1.28-.4-1.92-.61.3-2.83.58-5.66.84-8.49Zm-2.39,21.64c.74.25,1.48.49,2.22.74-.3,2.84-.61,5.67-.95,8.5-.8-.28-1.61-.55-2.41-.83.4-2.8.78-5.61,1.14-8.42Zm4.98-15.73c3.52,1.1,7.04,2.2,10.56,3.3,1.04,15.6,1.5,31.18,1.39,46.73-5.41-1.98-10.82-3.96-16.22-5.94,1.94-14.58,3.37-29.29,4.27-44.09Zm-59.82,229.8c6.26-12.98,12.07-26.19,17.41-39.61,11.1,6.32,22.2,12.64,33.3,18.96-3.91,14.94-8.35,29.75-13.31,44.39-12.47-7.91-24.93-15.83-37.4-23.74Zm29.74,45.08c-5.47,14.47-11.47,28.76-17.97,42.84-14.24-10.54-28.48-21.08-42.72-31.62,7.58-12.22,14.73-24.71,21.43-37.45,13.08,8.74,26.17,17.49,39.25,26.23Zm-4.84-104.51c4.88-13.62,9.29-27.44,13.21-41.43,8.83,4.22,17.66,8.45,26.49,12.67-2.3,15.29-5.15,30.48-8.54,45.55-10.39-5.6-20.77-11.19-31.16-16.79Zm18.6-62.07c3.44-14.16,6.39-28.47,8.83-42.93,6.29,2.47,12.59,4.95,18.88,7.42-.65,15.51-1.87,30.96-3.63,46.33-8.02-3.61-16.05-7.22-24.07-10.83Zm8.19-71.13c.9.32,1.8.65,2.71.97-.4,2.82-.81,5.63-1.24,8.43-.96-.36-1.93-.71-2.89-1.07.5-2.77.97-5.55,1.43-8.33Zm-3.88,21.23c1.06.41,2.12.82,3.18,1.23-.49,2.79-1,5.57-1.53,8.35-1.12-.45-2.24-.89-3.36-1.34.59-2.74,1.16-5.49,1.72-8.24Zm-4.6,20.99c1.21.5,2.42,1,3.64,1.51-.59,2.76-1.2,5.51-1.82,8.26-1.27-.54-2.54-1.08-3.81-1.62.68-2.71,1.35-5.43,2-8.15Zm-5.32,20.74c1.36.6,2.72,1.2,4.08,1.81-.68,2.73-1.39,5.45-2.11,8.17-1.42-.64-2.83-1.29-4.25-1.93.78-2.67,1.53-5.36,2.28-8.04Zm-6.03,20.47c1.5.71,3.01,1.42,4.51,2.13-.78,2.7-1.57,5.38-2.38,8.07-1.56-.75-3.12-1.51-4.67-2.26.87-2.64,1.72-5.28,2.55-7.93Zm-6.72,20.19c1.64.82,3.28,1.65,4.92,2.47-.87,2.66-1.76,5.31-2.66,7.96-1.69-.87-3.39-1.74-5.08-2.61.96-2.6,1.9-5.2,2.82-7.82Zm-7.41,19.88c1.77.94,3.55,1.89,5.32,2.83-.96,2.62-1.94,5.24-2.93,7.84-1.83-.99-3.65-1.98-5.48-2.98,1.05-2.56,2.07-5.12,3.08-7.69Zm-8.09,19.56c1.9,1.07,3.8,2.14,5.71,3.21-1.05,2.58-2.12,5.15-3.2,7.72-1.95-1.12-3.9-2.24-5.85-3.36,1.13-2.51,2.25-5.03,3.35-7.56Zm-8.75,19.23c2.02,1.2,4.05,2.41,6.07,3.61-1.14,2.54-2.29,5.07-3.46,7.59-2.07-1.26-4.14-2.51-6.21-3.77,1.22-2.47,2.42-4.94,3.6-7.43Zm-9.4,18.87c2.14,1.34,4.28,2.68,6.42,4.03-1.22,2.49-2.47,4.98-3.72,7.45-2.18-1.4-4.37-2.8-6.55-4.19,1.3-2.42,2.59-4.85,3.86-7.28Zm-10.05,18.5c2.25,1.49,4.5,2.97,6.75,4.46-1.31,2.45-2.64,4.88-3.98,7.31-2.29-1.54-4.58-3.09-6.88-4.64,1.38-2.37,2.75-4.74,4.1-7.13Zm-10.68,18.11c2.36,1.64,4.71,3.27,7.07,4.91-1.39,2.4-2.8,4.78-4.23,7.16-2.39-1.7-4.79-3.4-7.18-5.09,1.47-2.31,2.92-4.64,4.35-6.98Zm-11.3,17.7c2.45,1.79,4.91,3.59,7.36,5.38-1.48,2.34-2.97,4.68-4.48,7-2.49-1.86-4.98-3.71-7.47-5.57,1.55-2.26,3.08-4.53,4.59-6.81Zm-11.91,17.27c2.55,1.96,5.09,3.91,7.64,5.87-1.56,2.29-3.13,4.57-4.72,6.83-2.58-2.02-5.16-4.04-7.74-6.06,1.62-2.2,3.23-4.42,4.83-6.64Zm-12.52,16.83c2.63,2.12,5.26,4.25,7.89,6.37-1.64,2.23-3.29,4.45-4.96,6.66-2.66-2.19-5.32-4.38-7.99-6.57,1.7-2.14,3.39-4.3,5.06-6.46Zm22.6-2.93c14.75,11.46,29.5,22.93,44.25,34.39-7,13.87-14.5,27.52-22.49,40.91-15.68-13.44-31.36-26.89-47.04-40.33,8.85-11.35,17.28-23.02,25.28-34.97Zm-35.71,19.3c2.71,2.3,5.42,4.59,8.13,6.89-1.72,2.17-3.45,4.33-5.2,6.48-2.74-2.36-5.48-4.73-8.21-7.09,1.78-2.08,3.54-4.17,5.29-6.28Zm-13.69,15.89c2.78,2.47,5.56,4.95,8.34,7.42-1.8,2.11-3.61,4.21-5.43,6.3-2.81-2.54-5.61-5.09-8.42-7.63,1.85-2.02,3.69-4.04,5.51-6.09Zm-14.26,15.4c2.85,2.65,5.69,5.31,8.54,7.96-1.87,2.05-3.76,4.08-5.66,6.11-2.87-2.73-5.74-5.45-8.61-8.18,1.92-1.95,3.83-3.91,5.73-5.89Zm25.1.79c16.08,14.46,32.16,28.91,48.23,43.37-8.48,13.14-17.44,26.02-26.89,38.6-16.77-16.6-33.53-33.21-50.3-49.81,10.05-10.38,19.71-21.1,28.95-32.15Zm-39.92,14.09c2.9,2.84,5.81,5.68,8.71,8.52-1.95,1.98-3.91,3.95-5.88,5.91-2.92-2.92-5.85-5.83-8.77-8.75,2-1.88,3.98-3.77,5.95-5.68Zm-15.36,14.36c2.95,3.03,5.91,6.07,8.86,9.1-2.02,1.91-4.06,3.81-6.11,5.7-2.97-3.11-5.94-6.22-8.91-9.33,2.07-1.81,4.12-3.63,6.16-5.47Zm-15.9,13.81c3,3.23,5.99,6.46,8.99,9.68-2.09,1.84-4.2,3.67-6.32,5.48-3.01-3.31-6.02-6.61-9.03-9.92,2.14-1.74,4.26-3.49,6.37-5.25Zm-16.43,13.25c3.03,3.43,6.06,6.86,9.09,10.28-2.16,1.77-4.34,3.52-6.53,5.26-3.04-3.51-6.08-7.01-9.13-10.52,2.2-1.66,4.39-3.34,6.57-5.03Zm-16.94,12.67c3.06,3.63,6.12,7.26,9.17,10.89-2.23,1.69-4.48,3.37-6.74,5.04-3.07-3.71-6.13-7.42-9.2-11.14,2.27-1.58,4.53-3.18,6.77-4.79Zm-17.45,12.07c3.08,3.84,6.15,7.68,9.23,11.52-2.3,1.62-4.62,3.22-6.95,4.8-3.08-3.92-6.16-7.84-9.25-11.76,2.33-1.5,4.65-3.02,6.96-4.56Zm-17.94,11.45c3.39,4.38,6.79,8.76,10.18,13.14-2.47,1.87-4.94,3.74-7.41,5.62-3.22-4.53-6.43-9.07-9.65-13.6,2.29-1.72,4.58-3.44,6.87-5.16Zm76.51,116.38c-3.07-4.25-6.13-8.51-9.2-12.76,2.37-1.98,4.75-3.96,7.12-5.93,3.12,4.15,6.23,8.31,9.35,12.46-2.42,2.08-4.85,4.15-7.27,6.23Zm17.95-16.62c-2.86-3.79-5.72-7.59-8.59-11.38,2.3-2.17,4.57-4.35,6.84-6.55,3.08,3.84,6.15,7.68,9.23,11.52-2.49,2.14-4.99,4.28-7.48,6.42Zm-30.35-6.59c-17.07-22.84-34.13-45.68-51.2-68.51,11.31-8.96,22.62-17.93,33.93-26.89,17.61,21.15,35.22,42.3,52.83,63.45-5.22,5.41-10.98,11.01-17.31,16.69-6.26,5.62-12.38,10.69-18.26,15.26Zm48.22-10.56c-3.07-3.71-6.13-7.42-9.2-11.14,2.21-2.24,4.39-4.49,6.56-6.76,3.06,3.63,6.12,7.26,9.17,10.89-2.16,2.35-4.34,4.68-6.54,7Zm-48.81-98.19c11.19-9.29,22.01-18.97,32.45-29.01,17.04,17.69,34.08,35.39,51.12,53.08-9.91,12.29-20.3,24.27-31.16,35.91-17.47-19.99-34.94-39.99-52.41-59.98Zm65.3,80.16c-3.04-3.51-6.08-7.01-9.13-10.52,2.11-2.3,4.21-4.62,6.29-6.95,3.03,3.43,6.06,6.86,9.09,10.28-2.07,2.41-4.15,4.8-6.25,7.19Zm15.76-18.51c-3.01-3.31-6.02-6.61-9.03-9.92,2.02-2.37,4.03-4.75,6.01-7.14,3,3.23,5.99,6.46,8.99,9.68-1.97,2.47-3.96,4.93-5.97,7.37Zm15.02-18.97c-2.97-3.11-5.94-6.22-8.91-9.33,1.93-2.43,3.84-4.87,5.73-7.32,2.95,3.03,5.91,6.07,8.86,9.1-1.87,2.53-3.77,5.04-5.68,7.55Zm14.28-19.41c-2.92-2.92-5.85-5.83-8.77-8.75,1.83-2.48,3.65-4.98,5.45-7.49,2.9,2.84,5.81,5.68,8.71,8.52-1.78,2.58-3.57,5.15-5.39,7.71Zm13.54-19.83c-2.87-2.73-5.74-5.45-8.61-8.18,1.74-2.54,3.46-5.09,5.16-7.65,2.85,2.65,5.69,5.31,8.54,7.96-1.68,2.63-3.38,5.25-5.09,7.87Zm12.79-20.22c-2.81-2.54-5.61-5.09-8.42-7.63,1.64-2.59,3.27-5.19,4.88-7.8,2.78,2.47,5.56,4.95,8.34,7.42-1.58,2.68-3.18,5.35-4.8,8.02Zm12.03-20.59c-2.74-2.36-5.48-4.73-8.21-7.09,1.55-2.64,3.08-5.29,4.58-7.95,2.71,2.3,5.42,4.59,8.13,6.89-1.48,2.73-2.98,5.45-4.5,8.16Zm11.26-20.95c-2.66-2.19-5.32-4.38-7.99-6.57,1.45-2.69,2.88-5.38,4.29-8.09,2.63,2.12,5.26,4.25,7.89,6.37-1.38,2.77-2.78,5.53-4.2,8.29Zm10.49-21.27c-2.58-2.02-5.16-4.04-7.74-6.06,1.35-2.73,2.68-5.47,4-8.21,2.55,1.96,5.09,3.91,7.64,5.87-1.28,2.81-2.58,5.61-3.89,8.41Zm9.71-21.58c-2.49-1.86-4.98-3.71-7.47-5.57,1.25-2.77,2.48-5.55,3.7-8.33,2.45,1.79,4.91,3.59,7.36,5.38-1.18,2.85-2.37,5.69-3.59,8.52Zm8.93-21.86c-2.39-1.7-4.79-3.4-7.18-5.09,1.15-2.81,2.29-5.62,3.4-8.45,2.36,1.64,4.71,3.28,7.07,4.91-1.07,2.88-2.17,5.76-3.28,8.63Zm8.14-22.13c-2.29-1.55-4.58-3.09-6.88-4.64,1.05-2.84,2.08-5.69,3.09-8.55,2.25,1.49,4.5,2.97,6.75,4.46-.97,2.91-1.96,5.82-2.97,8.73Zm7.35-22.37c-2.18-1.4-4.37-2.8-6.55-4.19.95-2.88,1.88-5.76,2.79-8.65,2.14,1.34,4.28,2.68,6.42,4.02-.87,2.94-1.75,5.88-2.66,8.81Zm6.54-22.59c-2.07-1.26-4.14-2.51-6.21-3.77.85-2.91,1.67-5.82,2.48-8.73,2.02,1.2,4.05,2.41,6.07,3.61-.76,2.97-1.54,5.93-2.34,8.89Zm5.74-22.78c-1.95-1.12-3.9-2.24-5.85-3.36.74-2.93,1.47-5.87,2.17-8.81,1.9,1.07,3.8,2.14,5.71,3.21-.65,2.99-1.33,5.98-2.02,8.96Zm4.92-22.96c-1.82-.99-3.65-1.98-5.48-2.98.64-2.96,1.26-5.92,1.86-8.88,1.77.94,3.55,1.89,5.32,2.83-.55,3.01-1.11,6.02-1.7,9.03Zm4.1-23.11c-1.69-.87-3.39-1.74-5.08-2.61.53-2.98,1.05-5.96,1.54-8.94,1.64.82,3.28,1.65,4.92,2.47-.44,3.03-.9,6.06-1.38,9.08Zm3.28-23.24c-1.56-.75-3.12-1.51-4.67-2.26.43-3,.83-5.99,1.22-9,1.5.71,3.01,1.42,4.51,2.13-.33,3.05-.68,6.09-1.06,9.13Zm2.45-23.35c-1.42-.64-2.83-1.29-4.25-1.93.32-3.01.62-6.02.9-9.04,1.36.6,2.72,1.2,4.08,1.81-.22,3.06-.46,6.11-.73,9.16Zm1.61-23.44c-1.27-.54-2.54-1.08-3.81-1.62.21-3.02.4-6.05.57-9.08,1.21.5,2.42,1,3.64,1.51-.11,3.07-.24,6.13-.4,9.19Zm.76-23.51c-1.12-.45-2.24-.89-3.36-1.34.1-3.03.19-6.07.25-9.11,1.06.41,2.12.82,3.18,1.23,0,3.07-.02,6.14-.07,9.21Zm-.09-23.55c-.96-.36-1.93-.71-2.89-1.07,0-3.04-.03-6.08-.08-9.12.9.32,1.8.65,2.71.97.11,3.07.2,6.15.27,9.22Zm-.95-23.57c-.8-.28-1.61-.55-2.41-.83-.12-3.04-.25-6.09-.41-9.14.74.25,1.48.49,2.22.74.22,3.07.42,6.15.6,9.23Z"/>
      <path class="cls-2" d="m1511.67,653.74l-130.03-195.11c-14.29,32.52-33.13,67.89-58.52,102.91l61.04,92.2h127.51Z"/>
      <path class="cls-2" d="m1295.21,328.94l-100.74-151.16h-125.43l155.98,235.59c24.74-24.4,48.41-51.98,70.19-84.43Z"/>
      <path class="cls-1" d="m985.88,219.93l-68.38-39.48c-5.7-3.29-11.81-3.55-16.74-.7-4.93,2.85-7.76,8.26-7.76,14.85v78.96c0,6.59,2.83,12,7.76,14.85,2.27,1.31,4.79,1.97,7.41,1.97,3.06,0,6.25-.89,9.33-2.67l68.38-39.48c5.71-3.3,8.98-8.45,8.98-14.14s-3.27-10.85-8.98-14.14Zm-28.46,20.07l-32.81,18.95c-5.65,3.26-10.27.59-10.27-5.93v-37.89c0-6.52,4.62-9.19,10.27-5.93l32.81,18.94c5.65,3.26,5.65,8.6,0,11.86Z"/>
      <path class="cls-3" d="m908.17,320.7c-5.16,0-10.22-.97-15.03-2.66v316.74c37.56-13.2,70.88-29.72,101.72-47.95v-308.77l-62.2,35.91c-7.65,4.41-16.11,6.73-24.49,6.73Z"/>
    </g>
    <path class="cls-2" d="m908.17,286.73c-2.01,0-3.88-.5-5.59-1.48-3.77-2.18-5.94-6.45-5.94-11.69v-78.96c0-5.25,2.17-9.51,5.94-11.69,1.69-.98,3.58-1.48,5.59-1.48,2.44,0,5.04.75,7.51,2.18l68.38,39.48c4.55,2.62,7.16,6.64,7.16,10.99s-2.61,8.36-7.16,10.99l-68.38,39.48c-2.46,1.42-5.06,2.18-7.51,2.19Zm11.53-31.13l37.29-21.53-37.29-21.53v43.06Z"/>
  </g>
  <g>
    <path class="cls-3" d="m1877.81,610.15c-2.19,4.28-5.48,7.95-9.86,11.02-16.66,10.96-33.32,19.4-49.98,25.31-26.96,10.08-54.8,15.12-83.51,15.12-21.7,0-42.96-2.85-63.79-8.55-21.26-6.14-40.44-14.47-57.54-24.99-17.75-10.3-34.19-22.8-49.32-37.48-14.69-15.12-27.18-31.56-37.48-49.32-10.74-17.32-18.96-36.5-24.66-57.54-5.7-19.73-8.55-40.98-8.55-63.78s2.85-44.39,8.55-64.11c5.92-21.7,14.14-40.99,24.66-57.87,10.08-17.54,22.58-33.87,37.48-48.99,14.69-14.47,31.13-27.18,49.32-38.14,18.63-10.75,37.81-18.85,57.54-24.34,20.82-5.7,42.09-8.54,63.79-8.54,29.15,0,56.99,4.82,83.51,14.47,18.85,7.45,35.62,16.11,50.31,25.97,4.16,2.85,7.34,6.41,9.54,10.69,2.19,4.27,3.29,8.82,3.29,13.64,0,6.36-1.64,12.16-4.93,17.42l-14.14,23.35c-3.73,6.36-8.06,11.13-12.99,14.3-4.93,3.18-10.03,4.77-15.29,4.77s-10.08-1.53-14.47-4.6c-8.77-6.36-17.43-11.29-25.97-14.79-18.63-7.68-38.25-11.51-58.85-11.51s-40.11,3.83-57.87,11.51c-18.19,8.1-33.98,18.63-47.35,31.56-13.15,13.15-23.67,28.82-31.56,47.01-7.89,18.19-11.84,37.59-11.84,58.2s3.95,39.46,11.84,57.2c7.89,18.2,18.41,33.87,31.56,47.02,13.59,13.59,29.37,24.22,47.35,31.89,17.54,7.89,36.82,11.84,57.87,11.84s40.66-3.95,58.85-11.84c5.7-2.41,11.73-5.59,18.08-9.53,7.67-4.82,15.45-7.23,23.34-7.23,11.4,0,20.39,5.37,26.96,16.11l14.47,23.34c3.29,5.26,4.93,11.18,4.93,17.75,0,4.82-1.1,9.37-3.29,13.64Z"/>
    <path class="cls-3" d="m2213.51,631.36v-53.59c0-5.7-1.86-10.41-5.59-14.14s-8.44-5.59-14.14-5.59h-147.3c-5.7,0-10.41,1.86-14.14,5.59s-5.59,8.44-5.59,14.14v53.59c0,5.7-1.92,10.41-5.76,14.14-3.83,3.73-8.6,5.59-14.3,5.59h-53.26c-5.7,0-10.41-1.86-14.14-5.59-3.73-3.72-5.59-8.44-5.59-14.14v-260.07c0-26.09,4.82-50.42,14.47-73,9.86-22.8,23.34-42.52,40.44-59.18,16.66-17.1,36.39-30.46,59.18-40.11,22.14-9.64,46.25-14.47,72.33-14.47s50.31,4.82,72.66,14.47c22.14,9.64,41.98,23.01,59.51,40.11,16.88,16.88,30.25,36.61,40.11,59.18,9.64,22.58,14.47,46.91,14.47,73v260.07c0,5.7-1.86,10.41-5.59,14.14-3.73,3.73-8.44,5.59-14.14,5.59h-53.59c-5.7,0-10.47-1.86-14.3-5.59-3.84-3.72-5.76-8.44-5.76-14.14Zm-27.29-326.16c-8.55-8.77-18.41-15.45-29.59-20.06-10.74-4.82-22.91-7.23-36.5-7.23s-25.43,2.41-36.17,7.23c-11.62,4.82-21.59,11.51-29.92,20.06-8.33,8.55-14.91,18.41-19.73,29.59-5.04,11.84-7.56,24-7.56,36.5v73.65c0,5.47,1.92,10.14,5.76,13.97,3.83,3.84,8.49,5.76,13.97,5.76h147.3c5.7,0,10.41-1.92,14.14-5.76,3.73-3.83,5.59-8.5,5.59-13.97v-73.65c0-12.94-2.3-25.1-6.9-36.5-5.04-10.96-11.84-20.82-20.39-29.59Z"/>
    <path class="cls-3" d="m2551.18,651.09h-67.4c-3.95,0-7.45-1.04-10.52-3.12-3.07-2.09-5.26-5.1-6.58-9.05l-139.08-425.12c-.88-2.41-1.32-4.93-1.32-7.57,0-6.14,2.08-11.29,6.25-15.45,4.16-4.16,9.54-6.24,16.11-6.24h62.14c3.95,0,7.56,1.2,10.85,3.61s5.48,5.59,6.58,9.54l74.31,278.15c2.19,8.12,4.22,14.14,6.08,18.09,1.86,3.95,3.67,5.92,5.42,5.92,3.51,0,7.56-8,12.17-24l80.55-278.15c1.32-3.95,3.56-7.13,6.74-9.54,3.18-2.41,6.74-3.61,10.69-3.61h62.14c6.8,0,12.33,2.08,16.6,6.24,4.28,4.16,6.41,9.31,6.41,15.45,0,2.63-.44,5.15-1.32,7.57l-139.74,425.12c-1.32,3.95-3.51,6.96-6.58,9.05-3.07,2.08-6.58,3.12-10.52,3.12Z"/>
    <path class="cls-3" d="m3135.62,657.66h-164.31c-67.44,0-119.57-17.54-156.41-52.61-40.35-38.14-60.52-96.01-60.52-173.6,0-90.74,19.52-155.19,58.55-193.33,34.1-33.64,87.77-50.47,161.01-50.47h161.67v79.4h-160.29c-35.4,0-62.31,9.21-80.72,27.62-18.85,18.85-28.28,47.35-28.28,85.49h269.29v80.06h-271.42c0,43.63,10.36,74.9,31.07,93.8,17.43,16.16,44.11,24.24,80.06,24.24h160.29v79.4Z"/>
  </g>
</svg>