<?xml version="1.0" encoding="utf-8"?>
<!-- Generator: Adobe Illustrator 24.1.2, SVG Export Plug-In . SVG Version: 6.00 Build 0)  -->
<svg version="1.1" id="Layer_1" xmlns="http://www.w3.org/2000/svg" xmlns:xlink="http://www.w3.org/1999/xlink" x="0px" y="0px"
	 width="428px" height="926px" viewBox="0 0 428 926" style="enable-background:new 0 0 428 926;" xml:space="preserve">
<style type="text/css">
	.st0{fill:#EEEEEE;}
	.st1{fill:#FFFFFF;}
</style>
<g id="Group_20" transform="translate(231 0)">
	<g id="Group_1" transform="translate(-231 0)">
		<rect id="Rectangle_1" class="st0" width="428.48" height="926"/>
		<path id="Path_1" class="st1" d="M234.51,353.98c11.47,31.5,45.48,48.64,77.63,39.12l116.34-42.35v135.03L78.88,613.03
			c-31.61,15.09-45,52.95-29.91,84.57c13.2,27.64,44.26,41.9,73.82,33.89l305.68-111.17V926H0V236.96l365.47-133.03
			c0.81-0.3,1.59-0.62,2.37-0.94c20.77-7.11,43.74-2.9,60.63,11.12v97.93c-5.57,4.58-11.88,8.18-18.66,10.64l-140.09,51.03
			C238.43,286.75,222.91,322.11,234.51,353.98z"/>
	</g>
</g>
</svg>
